{
    "name" : "VMD",
    "fingerprint" : "VMD",
    "facs" : {
        "ウィンク" : "eyeblinkleft",
        "eyeLookDownLeft" : "eyelookdownleft",
        "eyeLookInLeft" : "eyelookinleft",
        "eyeLookOutLeft" : "eyelookoutleft",
        "eyeLookUpLeft" : "eyelookupleft",
        "eyeSquintLeft" : "eyesquintleft",
        "eyeWideLeft" : "eyewideleft",
        "ウィンク右" : "eyeblinkright",
        "eyeLookDownRigh" : "eyelookdownright",
        "eyeLookInRight" : "eyelookinright",
        "eyeLookOutRight" : "eyelookoutright",
        "eyeLookUpRight" : "eyelookupright",
        "eyeSquintRight" : "eyesquintright",
        "eyeWideRight" : "eyewideright",
        "jawForward" : "jawforward",
        "jawLeft" : "jawleft",
        "jawRight" : "jawright",
        "ワ" : "jawopen",
        "mouthClose" : "mouthclose",
        "お" : "mouthfunnel",
        "口横狭め" : "mouthpucker",
        "mouthRight" : "mouthright",
        "mouthLeft" : "mouthleft",
        "にやり２" : "mouthsmileright",
        "にやり" : "mouthsmileleft",
        "mouthFrownLeft" : "mouthfrownleft",
        "ん" : "mouthfrownright",
        "mouthDimpleLeft" : "mouthdimpleleft",
        "mouthDimpleRigh" : "mouthdimpleright",
        "mouthStretchLef" : "mouthstretchleft",
        "口横広げ" : "mouthstretchright",
        "mouthRollLower" : "mouthrolllower",
        "mouthRollUpper" : "mouthrollupper",
        "mouthShrugLower" : "mouthshruglower",
        "mouthShrugUpper" : "mouthshrugupper",
        "mouthPressLeft" : "mouthpressleft",
        "mouthPressRight" : "mouthpressright",
        "mouthLowerDownL" : "mouthlowerdownleft",
        "mouthLowerDownR" : "mouthlowerdownright",
        "mouthUpperUpLef" : "mouthupperupleft",
        "mouthUpperUpRig" : "mouthupperupright",
        "下左" : "browdownleft",
        "下右" : "browdownright",
        "困る" : "browinnerup",
        "browOuterUpLeft" : "browouterupleft",
        "browOuterUpRigh" : "browouterupright",
        "cheekPuff" : "cheekpuff",
        "cheekSquintLeft" : "cheeksquintleft",
        "cheekSquintRigh" : "cheeksquintright",
        "noseSneerLeft" : "nosesneerleft",
        "noseSneerRight" : "nosesneerright",
        "ぺろっ" : "tongueout"
    }
}

